{
  "schemaVersion": 1,
  "id": "servio",
  "version": "${version}",
  "name": "Servio",
  "description": "Enables a friend list and ability to join someone else's world in Minecraft!",
  "authors": [
    "Krya"
  ],
  "contact": {
    "website": "https://mods.krya.wtf/servio",
    "repo": "https://github.com/Kry-a/servio"
  },
  "license": "BSD-3-Clause",
  "icon": "assets/servio/icon.png",
  "environment": "*",
  "entrypoints": {
    "main": [
      "wtf.krya.mods.servio.Servio"
    ]
  },
  "mixins": [
    "servio.mixins.json"
  ],
  "depends": {
    "fabricloader": ">=0.14.8",
    "fabric": "*",
    "minecraft": "1.19"
  }
}
